<?xml version="1.0" encoding="UTF-8"?>
<svg width="28px" height="16px" viewBox="0 0 28 16" version="1.1" xmlns="http://www.w3.org/2000/svg" xmlns:xlink="http://www.w3.org/1999/xlink">
    <!-- Generator: Sketch 52.3 (67297) - http://www.bohemiancoding.com/sketch -->
    <title>grand_practice_arrow</title>
    <desc>Created with Sketch.</desc>
    <g id="Page-1" stroke="none" stroke-width="1" fill="none" fill-rule="evenodd" stroke-linecap="round">
        <g id="Spectory-Grand-Practice" transform="translate(-626.000000, -285.000000)" stroke="#FFFFFF" stroke-width="1.5">
            <g id="Main-Image">
                <g id="Group-3" transform="translate(483.000000, 187.500000)">
                    <polyline id="grand_practice_arrow" transform="translate(157.000000, 105.500000) rotate(-360.000000) translate(-157.000000, -105.500000) " points="144 99 157 112 170 99"></polyline>
                </g>
            </g>
        </g>
    </g>
</svg>